43
24
5
2
30
12
13
36
29
9
18
37
29
2
35
43
23
26
40
10
28
2
18
17
5
38
20
28
39
4
33
18
30
25
23
41
17
23
3
31
27
37
22
20
13
37
25
24
8
30
34
32
8
8
35
15
19
18
11
42
12
43
34
25
28
33
24
5
22
2
6
41
35
20
28
41
6
6
37
5
29
22
24
11
5
33
33
12
13
30
10
10
43
20
22
32
35
31
12
43
24
25
42
25
15
4
35
10
8
36
35
23
27
3
28
21
25
30
42
37
18
27
13
22
36
18
14
2
11
19
2
6
20
41
10
26
20
42
36
30
28
27
26
30
23
8
31
9
34
2
12
3
31
41
37
19
23
6
11
25
3
33
31
35
13
17
43
16
3
40
38
39
43
36
43
18
22
19
18
23
13
9
32
42
19
14
37
10
19
39
15
9
37
6
6
10
3
43
26
42
8
31
15
18
6
42
20
34
9
23
29
32
30
6
36
37
7
13
13
12
26
8
12
14
6
19
35
30
3
41
15
42
37
37
32
37
37
21
11
27
39
42
38
5
13
37
2
23
17
40
37
36
27
34
2
7
4
18
43
10
9
14
30
14
12
32
7
18
31
22
38
13
43
35
28
4
13
10
20
38
13
12
38
6
10
26
6
43
29
3
35
16
32
26
32
24
2
39
30
13
41
13
42
31
25
36
21
35
41
33
42
33
25
17
21
16
31
13
37
40
38
10
33
9
8
17
32
15
33
20
14
30
33
22
41
29
17
36
6
31
16
12
23
4
32
21
39
21
2
18
41
34
9
34
23
32
21
5
3
7
42
43
36
39
33
39
18
11
40
13
29
18
42
39
18
2
25
13
16
29
31
31
11
5
22
34
37
14
22
11
12
6
7
27
11
26
34
17
24
26
38
5
15
42
40
14
13
35
37
33
36
23
16
34
38
32
42
36
40
24
29
33
25
18
4
6
14
23
36
6
35
6
33
36
13
14
10
17
6
17
12
42
11
9
8
31
30
16
21
42
27
14
40
26
20
23
18
27
11
17
16
42
40
24
38
42
29
36
11
27
14
23
29
14
39
38
41
13
24
19
41
23
19
2
37
29
20
9
25
15
36
35
31
10
2
26
16
21
3
16
28
27
17
12
24
35
8
27
5
13
19
14
17
16
19
11
11
40
20
4
36
24
34
40
41
21
5
26
29
34
2
17
21
36
30
17
34
37
16
9
3
43
14
28
27
19
17
20
27
34
2
11
27
3
5
36
35
40
32
29
11
33
41
18
13
22
17
10
21
8
42
20
39
5
29
3
36
17
16
5
12
32
43
19
3
20
3
20
40
32
6
38
13
6
10
28
38
3
31
38
14
36
2
33
10
28
38
41
40
27
17
40
18
9
18
37
41
8
4
34
17
33
5
37
7
42
23
42
43
20
23
20
41
34
33
32
10
22
6
35
18
22
20
21
28
29
27
6
34
16
10
5
18
19
32
21
19
34
21
6
23
5
2
26
34
20
25
12
9
33
23
19
13
35
32
42
26
6
30
22
4
11
23
29
16
3
40
38
39
14
21
43
25
30
37
22
34
31
8
31
41
32
14
30
22
18
7
13
38
27
5
12
38
25
41
24
5
6
22
36
13
6
33
22
12
27
11
34
41
43
42
19
39
38
25
14
15
17
39
12
13
9
22
23
38
23
16
36
14
7
10
9
19
3
38
17
19
15
25
42
23
31
37
21
2
8
42
9
12
6
30
14
8
42
41
5
8
30
34
36
17
20
17
27
28
6
8
16
28
11
9
2
38
38
42
27
14
28
38
27
40
33
34
7
10
25
14
33
34
14
3
35
15
25
22
32
21
27
31
30
29
25
14
7
16
7
40
25
17
13
26
2
21
5
25
38
14
31
34
31
14
39
21
34
3
18
7
12
24
22
17
30
35
32
18
39
28
35
15
22
16
2
4
36
2
17
11
17
32
5
39
11
24
40
2
33
39
9
13
27
31
38
10
35
40
35
27
26
4
15
14
31
39
2
29
27
21
25
37
29
28
25
28
30
35
2
22
39
14
12
29
28
18
43
3
29
17
10
24
30
19
42
20
32
34
17
7
23
24
38
21
36
28
19
33
32
6
2
7
15
39
15
22
29
20
9
15
26
14
36
15
38
39
28
5
20
12
35
7
38
4
22
31
6
38
9
22
34
38
31
18
37
28
39
19
32
33
18
11
13
16
9
33
41
14
8
26
28
7
32
29
5
19
18
18
4
5
12
19
27
