15
39
41
14
22
19
14
37
34
4
21
25
8
35
6
24
12
24
21
38
4
43
39
14
6
20
13
32
24
6
7
40
6
4
13
28
31
39
6
31
34
43
13
25
23
30
16
5
34
10
35
36
16
24
31
17
9
30
39
10
9
34
5
15
25
25
16
38
17
13
32
15
22
31
18
36
20
17
42
3
20
3
6
14
33
42
30
43
31
28
20
13
28
37
12
24
23
23
23
39
33
20
41
37
16
20
11
20
14
6
3
7
25
31
42
24
24
29
4
15
13
30
14
13
40
16
11
26
34
11
16
21
23
39
16
32
9
10
12
28
32
6
18
43
28
32
24
2
17
16
13
17
9
9
38
38
24
16
20
40
40
19
35
36
5
2
17
32
8
34
12
4
24
22
7
42
35
21
14
29
20
39
30
31
5
41
22
8
4
24
17
31
12
36
15
21
22
18
35
6
8
41
43
24
26
18
16
43
19
7
33
13
31
13
26
9
43
7
29
36
24
40
29
25
10
35
13
10
4
24
14
6
19
8
35
36
9
21
42
3
2
10
30
14
23
40
23
2
24
26
21
33
24
43
38
17
32
14
38
22
35
25
17
26
14
9
38
32
18
27
6
22
22
43
16
24
18
3
30
11
17
6
8
24
8
43
11
23
8
8
42
40
34
23
19
3
21
11
14
24
41
38
18
4
18
21
12
26
4
24
38
7
42
7
8
33
20
23
30
10
12
25
15
3
33
30
13
36
7
11
36
24
6
25
30
27
29
17
39
2
36
43
14
10
21
30
9
42
2
15
13
7
16
30
9
20
8
10
30
24
30
14
24
43
5
38
5
28
24
27
39
11
4
36
41
7
41
21
30
16
41
18
32
18
5
33
41
5
13
42
11
37
25
29
40
8
15
18
5
28
29
36
17
15
5
40
6
10
43
17
23
16
36
11
9
28
2
12
5
32
31
32
26
12
15
22
8
31
18
10
3
42
22
9
24
11
7
13
6
36
9
4
37
33
10
20
16
18
30
17
22
37
42
23
32
25
41
19
30
15
2
41
38
35
3
26
26
11
34
6
13
20
15
39
14
38
9
26
36
36
41
33
39
28
23
12
31
5
22
38
43
24
6
15
42
22
28
38
30
23
19
43
15
22
20
8
21
2
12
10
29
24
21
20
27
16
39
26
21
24
38
43
26
40
25
34
22
40
9
28
22
11
4
21
34
39
16
15
20
13
24
7
7
33
21
8
22
34
7
7
3
38
2
27
19
16
32
20
30
23
23
35
29
26
21
33
31
22
19
38
37
24
41
7
42
32
37
29
9
7
23
31
36
25
7
24
17
31
28
17
31
43
6
42
32
13
19
33
35
43
17
8
43
27
4
26
22
16
15
29
28
4
20
6
17
3
16
7
42
29
2
38
22
38
38
27
10
10
11
14
28
41
31
21
10
36
36
30
13
3
4
25
33
40
29
37
9
17
26
5
24
38
3
15
43
38
19
31
40
16
28
30
9
10
42
25
26
33
30
30
43
2
22
39
22
17
28
18
36
12
24
17
20
14
37
2
28
30
19
28
30
43
37
17
23
17
28
14
41
7
2
24
22
21
8
28
42
8
15
24
18
11
6
29
30
36
31
19
42
43
11
10
6
7
33
5
37
33
42
23
37
10
33
25
4
18
10
3
2
11
3
40
5
6
43
33
27
5
7
26
30
36
37
4
31
8
27
41
37
16
13
9
10
5
10
31
3
21
34
24
40
38
29
5
7
29
22
19
43
30
23
38
32
40
2
13
10
34
36
5
5
11
16
39
35
27
10
31
30
2
37
2
16
21
4
18
40
30
26
21
17
20
33
35
39
31
29
6
14
7
40
17
38
8
10
20
11
14
22
32
8
30
10
11
28
7
36
29
17
5
15
41
23
5
15
18
16
6
25
13
16
17
42
14
8
15
5
33
9
25
14
10
40
37
33
27
10
38
7
24
26
17
17
29
15
5
20
22
32
42
8
8
24
8
5
21
39
23
25
4
32
9
13
35
13
28
7
6
18
36
42
25
32
18
39
7
31
33
30
21
11
21
36
19
13
33
11
38
23
18
6
16
3
6
25
39
11
3
13
27
15
36
25
9
8
15
27
21
5
29
28
12
7
43
11
38
34
4
15
34
29
7
35
39
15
19
9
41
23
14
30
10
10
11
4
11
38
33
7
29
33
9
40
17
23
4
42
29
38
7
21
31
13
8
11
17
41
24
31
22
42
26
23
3
35
42
21
21
3
14
27
11
34
20
22
27
4
31
19
21
8
35
27
30
35
17
33
35
40
33
3
6
3
35
12
13
9
35
35
23
42
8
23
39
43
15
2
20
21
36
3
8
18
29
12
30
30
17
42
7
22
41
27
35
31
39
18
12
27
39
27
42
11
9
31
30
16
40
31
11
33
7
29
30
43
9
27
22
10
2
19
34
8
25
29
21
21
4
21
4
40
29
26
34
4
5
39
8
16
7
16
9
43
5
6
9
2
10
35
28
20
19
24
27
31
39
3
36
31
25
18
6
39
33
22
38
40
33
5
4
43
23
21
42
13
7
13
9
7
23
25
31
23
35
39
6
35
25
37
18
12
21
43
14
43
17
16
5
22
9
24
41
30
18
38
17
39
14
4
18
8
40
38
33
8
3
31
31
20
9
33
39
13
41
30
6
19
39
43
8
32
12
33
15
27
11
17
8
36
41
40
21
20
13
10
7
18
6
17
25
7
20
11
33
9
23
25
4
12
25
24
14
14
42
39
40
12
11
34
16
17
33
22
4
40
42
30
22
30
43
31
17
34
15
13
41
9
36
33
25
2
27
22
30
9
2
17
10
9
11
10
27
9
2
19
10
6
29
32
43
3
30
39
26
16
24
11
2
30
21
35
33
14
25
39
16
27
17
27
9
6
36
23
3
18
7
27
43
23
6
35
39
29
27
9
33
18
16
39
22
7
8
24
35
39
32
32
17
7
13
12
20
9
28
5
41
6
21
28
14
9
19
24
9
26
9
17
14
2
22
40
17
11
3
7
15
38
5
25
12
4
22
17
20
22
3
32
9
6
10
12
41
27
19
3
31
34
26
2
16
4
19
21
42
4
24
13
10
9
12
27
20
5
31
10
42
41
2
6
25
33
37
22
4
37
17
16
15
18
41
20
38
20
36
42
42
36
2
33
21
13
38
34
16
10
11
37
4
10
9
4
22
12
23
29
28
35
39
18
21
12
24
16
8
41
18
18
34
27
4
14
24
9
4
10
18
33
3
21
41
6
10
21
42
4
37
36
18
39
7
40
41
28
24
19
20
4
33
23
2
18
38
21
31
32
16
40
21
40
39
25
16
6
21
7
34
26
43
19
40
41
8
40
35
11
30
16
37
7
30
25
19
23
37
5
38
40
25
30
18
14
36
26
3
5
37
10
37
9
36
11
40
8
32
5
31
24
22
5
23
38
30
5
39
6
25
28
25
36
13
16
2
36
39
36
28
19
38
20
4
12
27
20
42
28
4
30
19
10
23
12
43
40
30
7
34
2
34
6
2
19
13
6
10
37
5
17
24
13
5
10
8
36
25
5
8
37
11
27
22
40
42
35
40
37
43
23
21
37
2
2
34
40
20
16
11
28
21
27
18
9
30
13
38
9
4
32
18
26
18
27
17
16
21
8
2
13
25
25
8
14
4
31
18
10
29
20
21
38
36
31
21
32
12
7
21
35
36
16
28
2
25
3
25
22
14
10
5
15
25
37
3
29
41
35
18
24
12
3
12
28
10
23
23
31
6
23
13
26
20
21
22
3
22
20
10
4
24
43
25
13
41
20
22
35
2
4
21
29
23
19
39
24
39
27
35
15
21
9
39
13
9
24
6
40
40
33
33
15
34
12
7
19
26
10
30
4
17
17
43
36
21
10
14
3
33
28
16
37
7
33
5
10
38
32
12
7
40
25
4
9
41
20
26
18
20
20
20
32
24
3
30
21
39
18
15
9
22
42
26
14
15
8
20
11
20
27
30
21
28
31
25
12
13
2
4
19
5
33
12
23
15
15
31
36
34
15
38
19
24
20
41
25
39
42
42
39
7
23
29
17
7
2
38
26
35
35
20
5
18
9
29
19
43
8
31
42
27
17
38
33
38
25
6
28
25
14
3
40
23
36
41
26
31
20
19
12
37
32
41
11
28
25
31
36
26
13
23
2
22
17
36
7
15
33
7
11
26
27
29
39
16
29
33
42
8
16
24
22
36
38
6
4
25
8
37
33
30
19
28
28
40
35
11
5
2
41
5
22
30
8
35
10
41
33
9
28
24
2
30
38
19
25
41
30
2
24
4
22
9
38
17
31
11
33
27
29
42
24
33
4
43
17
7
13
28
29
35
14
7
23
2
37
37
40
16
30
29
30
43
21
25
12
2
17
8
24
28
19
12
15
33
21
28
27
2
43
26
6
22
39
24
33
43
26
22
26
30
5
38
15
31
11
10
26
15
15
25
12
18
3
43
42
33
24
7
9
29
18
34
28
24
15
7
34
25
36
28
26
35
22
7
30
19
34
43
22
9
5
22
34
9
33
41
22
3
12
20
28
24
29
14
27
42
35
33
15
12
14
30
31
8
23
16
10
24
11
14
33
29
42
26
39
10
15
11
9
16
35
43
6
5
12
38
11
9
40
29
29
35
8
19
33
11
21
32
33
3
25
8
7
10
40
21
37
38
12
9
30
34
35
42
14
31
19
27
2
34
23
28
26
37
31
25
22
7
13
32
42
2
31
24
17
7
33
31
38
5
43
27
14
11
2
5
11
38
38
43
21
30
16
21
36
41
23
28
19
27
26
12
40
21
38
3
18
13
32
31
11
37
31
14
26
36
39
17
29
29
32
12
41
20
12
26
21
37
28
5
8
6
13
9
40
19
9
36
43
4
9
9
18
12
9
29
11
31
37
12
23
16
34
34
34
39
27
3
40
41
3
24
32
14
5
6
31
10
17
33
21
29
24
26
20
22
38
31
7
8
20
41
29
21
35
42
34
40
32
28
38
5
23
20
19
26
21
14
31
43
42
33
33
22
25
40
32
15
17
11
30
35
38
6
36
36
17
10
34
29
40
18
27
26
27
38
32
10
40
43
37
32
28
21
26
41
38
37
38
27
40
18
21
8
41
30
43
9
35
7
26
33
22
9
28
18
37
27
21
9
11
36
10
5
26
9
9
17
24
41
40
15
23
10
2
21
40
41
32
33
14
9
10
2
5
29
17
32
15
22
18
40
12
27
16
34
29
40
36
11
10
14
35
26
36
31
38
29
40
41
4
9
20
15
5
12
18
23
17
31
20
2
33
33
33
14
22
12
6
38
5
30
12
11
40
2
30
4
5
31
21
8
20
36
40
7
39
16
39
34
22
18
39
6
20
40
31
12
15
16
10
3
43
10
15
19
10
22
32
42
26
7
12
9
40
6
16
4
19
28
2
25
21
8
43
12
3
30
23
32
32
22
26
8
25
29
2
10
11
40
13
23
13
34
8
3
33
13
28
37
28
22
22
4
36
43
5
36
16
31
39
24
41
41
12
33
28
17
37
5
31
17
20
4
36
38
27
20
4
11
17
20
10
10
43
26
37
19
17
30
7
37
28
9
2
18
22
29
36
35
23
25
5
23
25
16
15
14
6
19
39
38
20
40
3
43
39
3
40
18
43
40
6
40
35
41
14
33
16
24
38
6
19
9
23
11
35
8
26
6
40
9
19
20
6
35
14
21
21
29
3
29
6
4
3
40
12
23
19
12
4
37
5
11
15
36
6
20
3
37
12
19
15
13
21
11
7
24
22
9
12
38
32
7
27
17
13
22
7
27
15
32
3
3
13
43
16
11
12
15
3
18
28
12
30
38
12
22
12
16
37
17
24
23
42
35
32
15
25
22
43
2
32
12
35
34
25
30
12
40
19
27
35
27
12
43
8
20
17
34
37
7
4
14
18
11
26
27
8
27
36
41
34
37
30
36
15
36
38
32
38
6
41
11
11
22
15
39
18
27
3
8
43
37
6
17
26
8
38
31
11
5
23
9
17
2
21
26
33
30
14
32
37
5
18
14
2
5
28
33
29
11
28
6
22
42
19
35
7
36
10
6
22
9
2
15
9
41
31
4
43
43
43
25
27
30
36
4
32
16
26
6
3
35
18
16
21
13
15
25
33
18
13
12
20
18
17
36
8
26
33
31
2
31
5
42
29
11
29
21
13
17
29
17
3
4
19
3
43
37
30
16
33
3
17
7
23
13
15
24
35
30
15
33
4
37
6
9
41
20
17
26
21
37
36
23
17
37
41
13
6
18
33
43
11
29
38
23
19
17
17
30
35
9
13
15
8
19
18
4
33
36
42
33
2
33
25
33
43
10
37
32
39
33
18
4
15
32
4
20
26
26
17
19
21
4
38
30
7
23
40
5
21
8
6
19
24
17
34
25
18
34
15
28
5
26
19
29
36
26
15
42
40
36
12
21
37
14
4
34
23
30
13
3
4
18
5
32
43
18
14
3
9
17
42
41
28
24
16
27
8
32
13
10
39
34
37
41
34
3
6
8
41
29
4
27
16
26
25
6
18
23
18
21
35
38
42
33
32
16
9
33
14
28
17
24
32
42
14
28
16
8
23
42
30
7
12
17
38
14
34
3
25
2
28
41
28
17
27
5
43
22
27
22
12
26
37
10
40
11
16
14
24
42
4
13
25
3
6
6
33
5
6
17
18
35
39
26
12
19
3
32
39
41
21
33
30
37
25
40
5
4
8
20
10
13
12
29
40
38
9
7
5
15
26
23
8
24
38
32
5
34
14
22
22
7
14
43
29
8
22
43
37
30
13
6
9
22
40
43
43
15
24
8
12
12
42
10
9
10
22
21
42
11
20
26
17
11
15
28
36
18
10
24
9
43
36
9
32
11
4
25
22
10
14
8
35
14
37
16
31
31
39
21
20
28
10
20
37
32
26
25
36
18
29
2
39
40
40
27
7
2
43
16
20
26
22
29
12
28
4
5
4
40
20
2
40
18
27
22
16
7
13
3
32
13
15
40
18
3
21
13
35
12
32
26
9
10
43
10
24
38
23
14
2
35
3
10
11
2
3
21
12
4
23
34
6
36
19
35
33
17
5
32
12
22
26
26
34
4
36
3
15
15
41
5
20
41
35
28
20
41
20
35
32
18
9
16
42
4
23
28
38
22
16
21
25
39
4
37
26
18
33
6
36
4
9
34
9
12
39
4
38
33
39
15
41
42
3
29
8
15
17
6
4
35
11
14
8
2
40
14
43
33
40
16
32
30
28
43
11
36
24
22
21
19
12
13
26
9
11
39
4
17
40
26
35
12
35
42
26
31
28
42
26
19
3
43
21
41
37
3
2
15
19
19
11
3
10
17
22
7
35
29
13
35
27
2
31
43
12
9
34
20
42
29
20
5
27
21
31
41
27
24
9
11
11
21
4
28
26
14
28
35
32
9
41
31
43
9
38
26
4
27
19
36
38
7
33
32
15
13
2
15
40
16
17
32
27
3
37
10
31
23
12
28
3
2
37
30
23
10
13
14
21
20
28
9
23
19
22
29
5
12
41
39
29
25
18
26
5
23
32
11
11
41
21
14
9
39
14
41
25
16
31
30
9
43
40
31
36
15
31
7
36
43
8
17
5
5
29
16
26
15
27
9
9
21
34
29
28
32
33
34
34
2
24
19
19
24
14
29
40
13
31
33
38
30
42
22
37
6
32
37
38
31
41
19
6
7
8
7
43
7
4
8
29
39
11
18
2
28
32
34
6
18
28
26
23
39
6
14
10
3
11
38
20
15
37
15
26
42
9
7
38
37
33
34
13
28
30
2
40
18
34
7
3
37
16
5
28
2
26
27
17
27
4
5
30
19
17
27
3
37
23
38
24
29
31
8
19
21
4
36
42
10
26
3
39
14
22
32
42
25
4
42
12
15
30
16
5
2
2
43
31
34
27
18
18
23
41
4
38
13
38
15
34
29
42
15
10
39
35
20
7
43
11
26
20
2
36
5
2
22
23
2
37
12
26
35
43
37
33
9
2
36
2
3
4
26
37
34
29
10
29
29
16
26
25
28
11
33
17
2
14
18
39
10
14
43
25
36
6
10
6
7
23
13
26
38
40
31
43
42
7
25
42
16
5
37
17
40
12
43
20
6
25
18
37
18
9
37
42
25
11
4
7
25
24
41
17
30
34
4
35
8
10
29
8
22
11
33
40
24
43
40
37
36
20
29
6
16
38
3
17
23
6
39
7
25
42
15
3
6
7
3
28
26
31
16
27
29
9
29
43
2
37
6
28
23
9
15
20
28
16
27
16
38
34
27
26
17
42
12
16
30
40
21
5
41
25
33
7
2
25
9
27
25
12
16
5
8
23
16
24
33
25
3
28
42
26
6
22
15
35
25
27
4
42
8
34
7
43
21
37
15
37
18
41
30
5
37
35
17
33
21
15
21
15
12
33
7
30
5
3
3
41
30
24
35
28
18
8
8
37
13
12
19
23
20
30
39
20
27
5
22
4
23
27
20
7
34
23
30
29
9
21
34
14
33
10
43
35
41
34
24
8
37
23
40
13
4
16
38
20
42
26
8
6
2
34
5
28
10
5
7
20
16
7
7
37
37
14
20
7
11
27
28
9
37
6
42
23
34
8
31
26
26
10
42
40
38
37
30
37
40
9
36
18
18
36
3
17
21
29
2
25
31
37
23
14
15
25
21
11
40
42
18
2
21
8
19
41
21
37
34
11
41
21
28
38
37
21
37
25
14
4
9
37
22
29
36
27
8
27
21
41
11
21
34
14
22
22
8
17
41
11
32
16
10
14
42
29
6
40
37
16
10
10
38
33
16
24
7
18
40
22
38
3
25
32
21
16
38
28
18
32
31
32
29
19
43
29
5
4
29
7
35
20
24
41
23
5
35
23
15
4
42
21
10
11
35
37
9
26
9
12
30
34
11
22
20
26
26
15
26
42
39
18
4
5
25
36
20
14
25
3
20
10
34
33
36
19
8
2
18
18
15
22
32
25
7
9
12
34
11
19
12
12
30
4
27
11
14
39
19
6
8
34
27
6
20
21
15
30
25
31
41
36
7
12
35
32
18
31
42
31
16
2
40
22
33
15
22
32
19
30
22
22
41
32
13
9
24
5
11
22
23
8
14
21
34
43
3
9
39
39
11
3
40
4
39
34
35
19
24
41
26
17
5
42
4
36
30
2
8
42
32
17
40
5
29
29
33
16
10
35
14
27
16
43
14
31
19
40
12
36
15
26
43
22
14
39
7
19
30
17
14
5
2
25
17
31
30
43
5
26
29
32
43
41
40
43
42
28
19
38
3
4
12
33
41
23
24
18
29
14
28
27
17
13
24
5
28
43
8
37
22
31
24
23
17
39
11
32
40
37
25
15
29
16
2
10
6
43
14
9
5
37
34
14
43
19
33
5
17
3
7
24
12
14
11
35
20
6
9
19
42
24
22
31
29
39
16
41
25
32
15
35
39
20
22
6
6
6
38
11
6
40
9
13
41
13
6
9
24
38
21
9
24
15
18
8
6
6
35
5
17
14
35
7
4
6
15
40
14
17
11
27
18
26
43
33
25
8
19
12
19
20
37
42
22
34
33
10
21
14
6
36
17
40
6
4
31
22
31
8
15
39
21
30
19
8
5
32
2
13
25
41
24
28
37
18
20
41
14
6
33
23
18
33
8
14
25
21
40
43
17
21
43
9
13
27
26
16
42
6
29
26
23
8
22
23
23
5
6
21
20
43
35
26
5
24
15
4
20
21
6
9
35
27
6
12
14
33
26
10
17
41
10
20
24
24
42
25
29
8
4
32
25
40
41
24
28
24
41
7
21
37
9
21
42
21
43
20
12
21
26
10
36
43
36
35
7
30
29
38
7
41
28
11
3
14
34
12
37
5
20
25
12
32
20
3
11
24
35
19
14
5
29
12
21
18
25
25
14
14
26
33
21
41
6
18
4
23
16
10
8
25
19
22
11
29
13
2
32
22
25
25
34
14
27
19
3
23
43
12
38
2
27
23
31
11
12
23
2
37
19
27
23
8
3
24
29
31
21
36
34
3
6
25
42
24
39
22
13
11
2
37
16
43
12
19
27
33
36
35
41
29
8
36
4
25
24
7
2
43
26
2
26
8
22
8
18
40
33
2
18
17
4
42
37
12
34
8
39
11
31
5
15
33
37
41
22
5
38
19
24
19
24
43
17
13
18
14
4
6
38
25
41
13
19
14
11
34
15
11
43
4
42
12
9
3
9
28
21
40
37
10
5
26
30
14
19
3
8
19
11
32
42
8
34
38
39
4
26
15
27
35
34
27
17
19
11
21
18
9
9
31
12
11
10
2
34
2
31
10
30
3
10
36
34
2
20
34
33
8
43
5
27
33
32
30
5
42
20
5
3
42
17
19
21
31
22
27
22
18
28
26
35
24
26
29
16
24
29
33
29
3
20
39
28
43
16
15
24
5
36
27
33
2
21
15
10
3
5
21
7
37
40
27
38
16
26
30
18
27
10
18
13
14
2
24
29
41
31
33
31
21
21
40
17
38
4
15
20
37
29
31
19
2
40
39
26
7
31
42
9
39
38
6
34
10
19
14
31
17
15
27
20
9
34
3
11
27
24
24
31
14
15
33
31
14
7
3
42
20
27
23
17
34
38
10
32
28
25
37
37
19
15
23
15
43
42
11
37
15
2
6
30
22
7
35
20
20
39
36
34
26
15
12
12
11
12
16
11
9
31
15
3
40
32
35
21
31
40
23
32
31
22
11
34
17
23
24
34
22
15
26
5
27
24
39
14
5
38
17
16
25
21
31
25
41
6
18
35
41
7
9
20
36
15
22
13
25
10
4
19
41
30
33
43
27
17
16
36
20
12
2
29
10
20
14
21
23
22
12
17
2
2
36
4
14
40
18
25
36
14
8
42
9
32
37
34
20
8
6
42
22
5
12
9
12
35
32
17
35
19
31
12
9
17
16
28
28
24
12
27
19
24
33
7
7
28
23
9
20
29
9
41
23
27
32
24
24
14
38
24
11
13
14
15
7
12
24
5
37
29
6
30
40
43
26
22
11
32
39
2
22
19
42
20
41
25
13
9
9
22
15
7
10
2
32
21
25
40
27
17
14
10
11
21
13
36
11
20
22
42
15
41
19
20
31
22
5
4
5
13
42
8
41
32
35
41
6
7
12
4
4
34
35
19
20
11
42
16
12
11
2
15
5
23
21
6
35
12
27
5
32
16
22
3
29
9
34
36
23
38
11
21
2
20
42
27
8
14
28
21
33
22
27
22
30
26
12
11
35
18
34
38
28
23
5
35
27
26
43
15
28
18
8
28
17
18
39
19
13
40
32
7
43
37
34
41
3
34
33
24
14
22
18
38
35
37
18
8
21
24
36
24
38
32
6
40
32
22
39
14
26
11
28
12
20
37
34
6
13
16
26
12
10
34
26
29
30
4
36
21
2
34
3
38
21
28
22
31
4
35
30
5
14
19
37
34
40
5
6
41
22
12
33
5
19
5
14
14
19
14
25
16
3
39
36
11
8
16
12
42
43
10
32
41
36
16
24
43
8
28
10
26
39
21
13
13
18
6
17
40
12
14
31
29
15
19
4
12
33
22
15
5
9
15
37
27
39
12
13
6
17
34
13
18
11
25
17
3
17
37
36
19
9
34
25
29
5
2
38
5
13
12
15
34
40
23
4
35
35
34
5
7
19
33
25
10
14
22
35
8
21
16
9
30
41
6
18
28
24
7
18
4
7
37
22
19
6
12
29
34
2
9
28
39
37
6
30
32
43
28
17
2
19
29
19
32
11
6
12
15
31
30
41
2
27
10
39
27
19
32
30
20
42
38
37
20
17
42
16
18
10
10
35
26
6
6
31
15
42
11
5
9
23
9
6
21
29
41
39
36
27
31
17
18
5
10
27
27
33
32
12
13
18
34
33
38
37
31
36
33
9
39
9
17
9
41
21
16
36
23
39
23
11
28
6
21
11
19
34
33
26
3
13
18
6
3
13
28
21
38
27
42
36
10
35
13
32
31
14
36
26
30
8
19
24
41
25
10
2
38
20
43
25
39
37
4
36
41
11
8
39
21
26
34
3
34
2
14
42
14
28
19
36
7
7
43
28
32
41
3
38
28
21
19
43
2
31
38
9
43
10
23
2
43
3
19
22
34
39
29
17
35
25
18
21
25
35
11
39
22
30
14
40
10
11
35
20
27
30
18
13
37
25
38
26
3
13
19
7
23
39
32
27
33
35
15
30
33
21
28
25
16
12
31
19
23
28
11
36
11
43
28
14
2
34
9
25
3
2
26
5
37
20
22
3
33
19
43
39
4
31
26
30
14
14
42
10
7
19
17
20
39
29
21
19
5
2
5
29
10
7
16
39
10
39
7
26
6
42
21
23
5
20
33
13
37
43
37
26
38
25
34
25
26
3
15
36
41
41
2
4
36
31
14
38
30
28
7
35
5
29
25
22
29
27
42
33
37
27
10
17
19
8
18
6
36
38
9
14
17
34
27
22
28
11
41
39
18
20
18
12
43
4
14
19
40
26
5
23
29
20
23
8
22
17
18
31
27
21
39
26
37
30
19
24
27
3
37
11
8
8
30
4
37
34
41
33
41
18
23
38
18
36
22
40
42
32
18
30
29
2
27
20
27
13
30
4
41
6
38
34
13
27
20
34
5
23
42
15
14
34
20
11
27
26
2
37
18
26
28
35
30
14
23
30
2
23
26
4
12
42
32
20
34
30
29
20
29
18
21
3
43
28
35
20
4
26
16
15
37
41
27
33
8
29
35
27
5
31
25
31
43
43
36
42
34
31
5
41
13
22
38
42
31
34
13
24
40
25
24
15
37
19
40
14
8
6
2
25
14
38
3
25
15
38
13
29
43
7
30
30
41
29
28
20
12
36
21
24
43
14
4
38
27
24
18
15
26
35
17
35
29
15
11
8
41
15
9
34
34
21
19
10
33
20
22
32
10
22
23
29
20
41
37
43
28
11
16
21
24
27
28
32
4
22
16
34
18
4
12
36
8
13
6
26
43
26
32
29
39
40
35
32
25
28
15
27
14
27
8
30
41
9
5
7
36
42
43
20
20
4
26
12
12
30
30
21
14
17
39
27
26
21
3
35
38
15
41
2
6
42
9
14
26
43
32
38
23
37
34
10
43
4
28
23
38
42
30
40
13
26
24
39
39
30
21
4
21
39
37
12
31
2
33
12
6
34
32
31
43
16
11
30
35
11
29
3
19
19
38
3
13
18
21
5
23
16
20
3
31
25
32
5
22
20
26
20
25
13
14
22
34
24
41
38
41
9
7
40
3
26
12
13
19
34
42
39
8
6
8
39
41
18
4
2
19
32
14
25
42
4
23
24
24
23
42
6
5
10
29
16
40
24
13
25
39
2
24
3
32
5
30
11
30
13
26
22
39
41
13
2
14
36
32
6
2
30
21
19
18
32
41
32
2
25
14
3
21
20
31
29
34
38
10
38
38
40
36
28
6
14
34
7
27
27
40
22
2
14
26
41
17
6
7
34
39
4
13
37
16
26
5
28
9
27
28
2
28
13
8
38
23
20
11
28
19
30
22
42
32
16
28
37
6
25
16
43
37
28
32
12
4
18
37
22
5
27
13
33
42
5
40
9
26
14
33
17
20
14
11
9
14
27
20
12
34
16
24
14
12
25
42
39
41
33
14
12
7
42
40
26
40
37
39
11
36
5
9
13
20
43
28
41
32
42
3
25
19
18
19
4
15
15
22
24
22
17
29
37
37
22
4
18
40
34
38
3
2
27
40
23
19
39
14
37
33
43
23
41
34
39
41
9
34
27
34
31
14
33
15
19
18
42
19
28
17
13
33
33
32
29
20
6
43
20
29
26
18
32
11
7
27
15
28
24
10
15
8
42
41
24
5
12
20
23
35
28
23
23
24
32
4
39
36
21
5
14
4
11
16
37
7
24
9
31
28
34
12
7
6
9
20
42
39
28
20
18
2
15
25
12
38
36
30
37
23
23
38
26
42
40
38
40
20
17
40
5
24
6
16
41
29
4
27
34
24
11
2
39
7
7
40
41
31
40
43
5
24
34
37
6
17
27
37
2
24
13
19
11
37
25
27
38
5
5
2
9
41
18
27
24
7
6
41
8
10
36
35
35
31
41
15
14
29
16
6
22
7
5
32
27
20
20
39
20
40
25
39
9
20
7
24
25
24
17
30
7
40
11
39
26
13
22
4
40
22
24
42
5
27
36
30
30
17
42
11
34
6
42
21
5
17
42
7
25
24
31
43
28
10
5
9
19
33
34
7
13
7
28
6
13
33
3
34
15
43
10
18
22
23
22
22
18
43
9
8
23
10
24
41
3
40
9
37
40
3
6
9
31
38
40
24
35
23
12
2
24
9
13
38
17
26
43
3
30
25
17
22
39
42
42
15
36
17
36
39
37
29
14
33
10
34
31
3
25
14
38
12
25
41
36
41
27
16
40
26
3
32
10
8
10
22
16
28
41
21
6
41
41
17
19
43
17
31
32
28
24
14
3
24
40
8
26
3
9
25
38
9
26
6
15
18
29
29
35
42
40
5
43
10
35
5
28
24
20
24
29
20
16
5
3
42
3
31
22
18
22
12
42
4
9
10
30
10
3
34
6
26
33
40
4
30
15
38
23
30
42
28
5
32
28
27
35
24
42
30
31
41
9
16
36
20
26
22
3
2
4
8
2
17
22
8
11
33
3
12
23
35
11
30
27
14
40
13
29
22
11
4
5
21
19
30
27
24
28
33
27
25
29
40
21
33
25
39
33
38
43
41
27
43
14
22
6
40
34
17
16
31
13
16
42
38
7
10
18
37
40
32
10
8
34
39
17
31
39
20
31
29
31
21
14
3
8
18
26
12
4
29
17
18
32
35
43
42
33
18
32
29
20
42
17
5
17
3
19
10
39
43
16
43
21
20
40
23
8
33
34
41
23
16
22
10
14
27
14
9
4
43
21
39
34
41
39
16
21
37
14
37
33
26
6
30
36
33
39
8
27
22
21
34
28
10
19
14
31
20
2
37
13
2
39
6
12
20
29
24
31
9
7
24
10
15
23
8
15
14
30
28
35
17
36
22
27
39
43
40
35
16
41
21
25
37
3
35
28
8
21
5
2
11
43
32
12
29
24
21
26
28
25
18
5
42
40
14
37
33
16
5
13
32
19
20
25
36
15
40
33
23
19
30
25
39
42
34
15
13
9
22
25
10
42
38
17
17
33
12
17
25
22
25
8
29
24
36
16
37
13
29
30
37
18
40
3
7
8
18
27
35
14
25
40
27
39
34
32
33
11
16
34
33
4
4
42
21
28
26
21
15
34
23
2
32
32
17
39
40
12
30
31
8
27
5
2
12
28
40
14
22
29
8
10
33
17
34
37
20
39
40
22
24
12
23
13
28
13
28
14
8
3
6
21
38
43
30
32
3
32
2
26
15
12
32
32
32
30
3
5
4
16
36
23
39
20
38
41
31
30
38
39
40
15
38
3
35
7
13
35
27
10
39
31
39
7
21
39
18
31
18
36
5
43
6
3
35
3
28
13
41
33
19
5
4
10
26
15
4
12
35
16
26
3
37
8
18
14
29
26
9
19
29
4
11
13
20
10
23
40
34
32
26
16
36
22
42
15
43
22
11
10
33
29
8
35
17
32
32
9
39
4
28
5
24
40
2
35
33
8
17
20
23
22
29
12
43
27
23
26
8
38
31
34
16
4
42
34
4
30
24
5
43
14
3
23
15
2
29
8
35
26
14
3
36
9
39
26
26
34
19
6
35
8
18
11
31
18
8
2
30
6
38
9
40
26
16
27
35
13
24
12
8
33
22
3
11
3
35
7
34
19
28
14
39
24
32
7
17
16
29
40
32
28
36
26
13
13
17
8
24
42
27
27
14
23
15
34
34
7
3
6
9
18
16
13
20
23
31
19
3
15
38
37
42
17
24
32
33
42
3
35
16
33
15
7
42
35
28
42
19
38
5
15
4
35
31
25
32
31
20
32
28
17
19
10
17
4
23
42
43
33
7
16
42
18
28
3
32
9
6
11
22
38
2
11
30
39
17
40
22
36
34
38
21
25
14
26
15
20
2
22
28
34
11
18
7
14
10
43
4
33
5
41
23
43
32
22
7
11
36
27
30
12
10
32
36
18
6
11
2
3
34
21
28
9
32
38
29
27
8
25
12
17
19
19
12
26
7
35
9
10
11
28
9
21
5
13
30
26
33
33
5
40
7
14
39
3
15
17
3
17
31
42
42
41
31
7
40
5
42
34
23
31
23
26
42
41
2
39
32
7
9
7
23
3
9
17
42
33
28
7
6
5
12
41
31
3
35
16
37
32
24
11
5
4
22
17
23
17
24
41
25
24
25
41
37
24
9
37
10
28
7
35
3
16
33
38
36
41
21
42
6
32
38
32
42
10
22
23
11
36
7
25
13
12
21
32
24
18
22
36
3
30
11
5
23
40
9
18
26
26
15
31
33
18
2
12
7
13
5
18
20
22
12
31
10
26
30
36
29
23
16
32
28
32
29
34
14
41
17
40
27
5
8
11
37
38
34
13
34
5
9
5
24
24
37
22
38
28
34
11
36
29
13
36
23
29
10
7
38
15
5
28
19
15
11
41
12
34
21
40
29
14
8
7
5
8
5
32
13
22
19
41
12
3
21
13
38
6
25
14
19
26
13
31
17
35
5
33
12
14
7
25
38
21
22
31
31
40
6
35
18
40
25
13
14
42
25
4
30
11
21
7
6
36
31
29
32
37
22
6
30
24
35
20
33
25
23
6
32
20
19
26
41
39
3
32
4
29
30
22
17
33
3
10
24
39
27
6
10
43
29
21
5
42
7
37
2
29
19
13
18
10
6
39
19
36
23
34
13
24
24
36
28
13
25
6
17
39
40
31
15
23
28
34
20
12
16
9
14
37
21
37
6
29
31
42
11
31
20
14
22
26
4
2
22
2
14
43
22
41
20
12
26
21
5
15
34
17
13
24
37
24
29
8
10
26
42
14
17
29
18
36
24
4
5
42
25
16
25
15
2
9
22
9
17
33
12
40
13
36
31
21
14
34
16
35
26
31
9
32
3
28
33
20
5
14
14
39
30
9
14
38
42
38
28
13
20
20
3
5
28
7
5
40
7
3
17
6
41
24
21
30
31
24
21
28
26
2
26
36
31
5
24
6
37
2
33
24
24
24
30
36
19
34
13
24
39
7
11
11
8
22
23
34
16
18
6
23
24
31
17
26
26
39
19
26
31
4
15
18
14
33
12
14
3
7
34
8
43
20
31
6
31
11
25
27
43
42
14
17
32
11
21
42
29
28
13
35
13
36
5
8
13
33
33
3
29
36
43
22
25
15
26
4
33
14
21
38
19
17
11
14
3
34
5
39
11
20
4
13
25
33
30
30
21
20
12
10
25
10
39
10
36
37
28
15
3
42
11
27
9
11
19
10
11
6
42
14
19
3
42
29
22
19
35
14
37
28
17
12
27
9
39
6
15
33
40
42
17
14
24
32
38
35
2
43
12
36
40
34
10
11
17
21
36
13
22
3
11
3
42
29
5
13
42
31
32
26
17
3
6
25
39
40
28
29
39
3
24
8
28
37
31
32
38
30
23
25
30
43
23
9
7
7
32
41
40
37
34
11
20
2
7
36
27
30
38
13
17
42
29
39
24
13
35
10
35
41
7
27
40
6
40
3
18
41
2
2
7
37
21
26
12
20
38
34
15
25
16
10
2
24
16
19
8
31
40
33
37
29
23
13
26
42
32
23
6
19
30
26
18
29
20
21
32
35
27
38
28
36
15
8
31
38
24
12
22
23
6
11
39
28
38
30
3
7
6
15
12
37
21
4
40
17
32
37
13
30
9
31
4
6
7
32
43
43
37
32
38
41
18
16
11
39
37
11
11
22
12
13
16
26
12
15
36
42
31
15
17
11
35
22
12
32
42
41
29
19
10
34
37
22
14
23
37
27
9
35
24
41
34
23
30
17
14
22
31
16
11
34
33
31
3
7
13
30
33
21
25
11
35
13
24
22
28
14
11
16
12
11
34
16
15
8
31
41
32
21
21
24
7
15
26
22
18
6
22
21
25
31
33
12
10
14
41
4
29
42
7
35
8
5
20
32
22
15
35
35
18
11
24
10
38
26
2
7
29
3
13
33
2
20
31
23
33
40
39
5
13
14
34
15
42
25
20
31
38
8
14
19
37
40
4
18
25
3
42
39
40
5
18
23
5
22
3
42
16
3
39
34
34
30
13
7
3
37
31
6
23
8
22
23
32
23
32
24
43
34
4
10
27
42
11
10
2
36
10
20
9
28
18
6
20
18
8
22
41
20
14
2
24
2
15
26
8
23
19
31
12
21
3
35
37
43
29
24
33
32
32
41
3
5
16
37
34
13
20
12
14
2
35
39
42
15
41
40
27
8
23
5
16
23
9
30
5
18
36
5
13
17
19
41
27
40
37
25
33
19
26
31
2
15
33
42
41
33
30
20
42
21
5
33
6
23
3
27
37
3
18
21
18
26
41
12
12
30
8
4
18
17
4
24
36
23
24
4
2
22
16
16
33
4
30
28
19
43
26
33
42
8
40
27
36
35
35
43
35
8
43
42
25
15
39
5
41
21
16
16
37
38
26
18
31
33
4
34
31
14
19
24
36
25
27
14
17
20
12
28
36
31
41
27
6
38
25
42
6
31
25
31
2
10
27
43
22
28
15
36
23
38
11
39
43
39
8
2
21
13
32
31
40
4
13
10
5
29
10
31
32
10
14
42
11
42
10
7
39
22
16
37
26
28
28
26
6
15
43
43
40
14
18
14
24
5
37
5
18
24
42
43
18
34
8
36
28
7
39
36
40
8
16
11
40
31
10
39
41
17
30
23
39
31
2
9
30
5
19
21
25
40
28
29
27
19
14
25
22
40
19
25
20
19
32
40
15
17
31
22
32
2
25
21
9
7
41
39
13
8
7
13
36
13
25
23
34
8
33
16
4
25
18
17
43
6
12
4
3
14
28
28
34
2
33
7
34
11
26
16
21
36
8
11
20
43
36
38
16
40
43
29
29
23
16
30
33
13
16
25
32
39
42
24
17
25
13
17
21
15
39
18
13
5
37
12
11
23
26
33
19
38
30
42
6
35
39
36
36
34
33
11
27
8
9
3
35
7
20
32
2
25
10
41
24
19
35
3
20
25
33
4
14
37
35
27
18
30
8
23
36
7
16
42
42
20
27
23
31
27
30
7
14
5
18
4
6
14
22
3
35
34
37
9
30
3
36
4
20
24
23
34
29
22
17
12
35
38
35
2
34
25
13
32
37
22
6
20
9
40
40
22
36
22
10
29
29
6
20
15
15
2
25
43
23
40
28
38
34
25
20
29
20
40
29
35
28
35
18
10
3
39
29
33
17
39
16
15
15
11
10
27
29
16
14
10
9
4
11
43
18
24
14
14
7
37
36
10
3
10
26
36
37
32
4
4
22
12
28
26
21
33
30
14
6
6
25
37
26
33
17
17
23
22
22
21
23
33
42
39
5
23
12
14
42
43
33
15
21
24
5
37
25
36
31
6
21
43
37
19
26
11
24
34
41
7
4
19
8
33
20
31
43
29
32
30
13
5
16
9
8
13
28
16
41
18
42
23
25
43
7
28
43
15
35
39
20
25
30
30
13
11
42
19
39
16
21
32
36
9
23
22
23
26
23
13
15
22
33
20
38
36
7
36
35
4
19
8
40
42
32
26
2
30
40
7
39
7
3
40
33
15
7
40
21
22
34
37
23
28
4
12
40
24
34
20
38
18
34
7
35
28
22
10
26
38
11
32
12
33
9
31
22
41
36
33
41
23
15
3
17
27
38
36
15
15
40
42
25
15
19
39
37
4
33
24
3
5
6
31
42
23
6
37
8
17
30
5
9
24
3
12
3
19
30
5
38
36
12
42
37
7
22
38
43
22
24
39
2
38
14
16
20
7
5
12
7
42
12
8
18
37
6
15
19
26
18
30
37
16
27
19
27
40
12
35
24
25
7
24
38
34
25
37
24
32
13
39
8
7
35
43
18
18
32
41
40
22
12
35
35
27
13
15
6
23
5
41
31
11
17
27
43
25
11
2
38
4
37
4
13
33
35
13
38
22
41
42
17
14
9
25
11
28
36
26
37
15
20
30
8
5
5
12
22
20
11
3
10
7
12
33
18
39
25
20
26
25
39
20
14
33
19
12
39
33
3
2
25
34
17
7
7
30
43
4
40
36
11
23
16
36
37
20
40
33
20
6
39
11
5
18
18
25
8
5
5
8
4
32
24
37
42
12
19
13
28
28
24
2
5
36
2
43
34
3
28
32
37
27
34
28
7
14
10
33
35
10
16
21
42
33
5
36
18
4
3
35
28
28
20
21
21
27
10
32
39
7
37
43
39
43
28
3
28
21
6
21
4
34
11
26
17
35
17
13
39
5
33
3
14
36
17
4
36
29
27
36
15
17
38
41
5
42
36
28
11
42
28
42
30
20
22
40
18
21
22
24
9
7
4
6
14
21
20
30
25
40
21
26
35
13
27
17
12
22
4
26
8
22
34
35
4
2
24
29
42
20
31
4
4
16
20
5
33
4
13
9
22
35
19
35
31
9
23
18
39
8
18
20
32
34
37
15
23
20
40
23
8
8
40
15
15
18
30
4
22
10
15
18
18
35
40
3
3
17
34
6
26
14
8
26
17
2
18
20
18
41
16
25
42
31
28
36
34
40
33
11
23
30
24
22
5
11
31
8
35
30
27
2
32
40
14
9
30
33
19
24
33
21
31
16
11
35
35
18
30
20
24
21
38
42
7
29
25
16
20
4
22
5
4
6
27
8
2
8
36
35
39
36
5
16
24
17
40
10
12
34
16
9
9
39
24
37
32
40
16
27
38
30
5
33
37
4
24
42
22
28
12
27
20
27
18
14
24
27
22
12
6
14
2
19
21
40
37
12
30
9
12
12
43
14
42
10
23
21
19
35
2
16
23
31
14
12
23
26
26
21
29
34
31
4
40
40
24
19
38
26
31
30
13
5
23
43
19
35
38
30
19
41
13
29
20
26
28
3
29
17
35
41
13
8
23
9
30
33
33
9
14
38
32
24
34
28
35
21
2
23
28
31
2
33
43
20
23
28
38
19
9
22
39
41
31
27
20
13
42
12
4
25
18
30
41
29
39
14
27
2
28
34
15
12
12
16
25
25
27
20
24
21
30
19
37
41
4
39
21
16
11
12
11
23
12
35
9
34
11
4
27
35
19
34
24
15
7
17
17
18
32
16
10
30
13
14
35
41
7
43
13
32
43
26
31
35
18
24
24
38
34
11
30
18
9
40
7
34
20
14
39
26
13
11
31
39
7
25
7
22
8
18
20
22
4
37
20
13
20
5
8
30
7
20
34
20
42
24
7
10
31
28
17
12
19
21
25
26
15
21
38
8
8
13
28
40
12
19
9
36
12
7
18
33
39
6
39
37
37
37
21
12
21
27
28
10
30
14
34
11
38
8
13
8
14
8
6
14
9
28
36
7
4
35
9
13
11
36
18
38
4
7
12
40
30
6
5
25
42
15
34
10
42
31
38
9
32
33
28
43
17
16
8
42
6
37
23
30
4
15
16
30
16
13
5
11
26
28
7
26
24
12
30
26
28
31
16
28
18
4
16
31
32
29
35
25
15
41
18
6
42
19
22
10
20
22
36
9
25
37
30
33
23
40
29
25
21
35
6
40
15
29
12
4
42
39
18
20
21
21
41
16
33
18
5
3
2
7
19
42
22
6
41
3
24
29
34
33
30
32
38
9
4
15
25
16
30
40
4
12
11
14
29
36
9
21
10
34
30
6
4
14
8
15
25
25
26
32
40
3
20
23
23
3
20
41
26
28
15
22
43
43
41
3
6
6
31
33
13
21
20
12
30
7
43
7
38
15
8
8
3
24
18
34
9
40
18
20
33
43
26
10
24
22
8
18
31
18
37
7
37
19
4
43
23
24
7
12
23
18
32
32
25
34
22
25
33
14
17
13
37
4
4
14
16
5
36
34
37
21
23
33
23
9
7
19
5
41
27
5
10
8
12
13
10
12
3
9
17
17
25
41
29
39
4
3
34
26
22
15
14
30
31
19
10
38
3
19
15
23
35
27
38
37
10
11
37
6
40
20
20
43
36
38
28
40
35
8
25
20
35
42
29
20
19
24
33
27
11
11
43
34
13
22
38
23
29
16
38
6
15
5
28
34
21
22
2
13
28
27
38
11
16
36
18
31
37
4
25
13
42
3
16
27
29
19
28
42
29
35
24
40
15
18
15
19
26
24
3
17
35
24
18
16
26
38
34
42
35
40
29
28
3
3
4
19
42
38
22
8
41
18
33
25
6
13
11
22
19
30
25
30
11
26
35
42
10
41
16
10
19
22
40
21
37
27
15
20
4
34
30
34
34
9
3
6
11
14
15
9
8
17
35
30
28
17
22
10
25
